\headcommand {\slideentry {0}{0}{1}{1/1}{}{0}}
\headcommand {\beamer@framepages {1}{1}}
\headcommand {\slideentry {0}{0}{2}{2/2}{}{0}}
\headcommand {\beamer@framepages {2}{2}}
\headcommand {\slideentry {0}{0}{3}{3/3}{}{0}}
\headcommand {\beamer@framepages {3}{3}}
\headcommand {\slideentry {0}{0}{4}{4/4}{}{0}}
\headcommand {\beamer@framepages {4}{4}}
\headcommand {\slideentry {0}{0}{5}{5/5}{}{0}}
\headcommand {\beamer@framepages {5}{5}}
\headcommand {\slideentry {0}{0}{6}{6/6}{}{0}}
\headcommand {\beamer@framepages {6}{6}}
\headcommand {\slideentry {0}{0}{7}{7/7}{}{0}}
\headcommand {\beamer@framepages {7}{7}}
\headcommand {\slideentry {0}{0}{8}{8/8}{}{0}}
\headcommand {\beamer@framepages {8}{8}}
\headcommand {\slideentry {0}{0}{9}{9/9}{}{0}}
\headcommand {\beamer@framepages {9}{9}}
\headcommand {\slideentry {0}{0}{10}{10/10}{}{0}}
\headcommand {\beamer@framepages {10}{10}}
\headcommand {\slideentry {0}{0}{11}{11/13}{}{0}}
\headcommand {\beamer@framepages {11}{13}}
\headcommand {\slideentry {0}{0}{12}{14/14}{}{0}}
\headcommand {\beamer@framepages {14}{14}}
\headcommand {\slideentry {0}{0}{13}{15/15}{}{0}}
\headcommand {\beamer@framepages {15}{15}}
\headcommand {\slideentry {0}{0}{14}{16/16}{}{0}}
\headcommand {\beamer@framepages {16}{16}}
\headcommand {\slideentry {0}{0}{15}{17/17}{}{0}}
\headcommand {\beamer@framepages {17}{17}}
\headcommand {\slideentry {0}{0}{16}{18/18}{}{0}}
\headcommand {\beamer@framepages {18}{18}}
\headcommand {\slideentry {0}{0}{17}{19/19}{}{0}}
\headcommand {\beamer@framepages {19}{19}}
\headcommand {\slideentry {0}{0}{18}{20/20}{}{0}}
\headcommand {\beamer@framepages {20}{20}}
\headcommand {\slideentry {0}{0}{19}{21/21}{}{0}}
\headcommand {\beamer@framepages {21}{21}}
\headcommand {\slideentry {0}{0}{20}{22/22}{}{0}}
\headcommand {\beamer@framepages {22}{22}}
\headcommand {\slideentry {0}{0}{21}{23/23}{}{0}}
\headcommand {\beamer@framepages {23}{23}}
\headcommand {\slideentry {0}{0}{22}{24/24}{}{0}}
\headcommand {\beamer@framepages {24}{24}}
\headcommand {\slideentry {0}{0}{23}{25/25}{}{0}}
\headcommand {\beamer@framepages {25}{25}}
\headcommand {\slideentry {0}{0}{24}{26/26}{}{0}}
\headcommand {\beamer@framepages {26}{26}}
\headcommand {\slideentry {0}{0}{25}{27/27}{}{0}}
\headcommand {\beamer@framepages {27}{27}}
\headcommand {\slideentry {0}{0}{26}{28/28}{}{0}}
\headcommand {\beamer@framepages {28}{28}}
\headcommand {\slideentry {0}{0}{27}{29/29}{}{0}}
\headcommand {\beamer@framepages {29}{29}}
\headcommand {\slideentry {0}{0}{28}{30/30}{}{0}}
\headcommand {\beamer@framepages {30}{30}}
\headcommand {\slideentry {0}{0}{29}{31/31}{}{0}}
\headcommand {\beamer@framepages {31}{31}}
\headcommand {\slideentry {0}{0}{30}{32/32}{}{0}}
\headcommand {\beamer@framepages {32}{32}}
\headcommand {\slideentry {0}{0}{31}{33/33}{}{0}}
\headcommand {\beamer@framepages {33}{33}}
\headcommand {\slideentry {0}{0}{32}{34/34}{}{0}}
\headcommand {\beamer@framepages {34}{34}}
\headcommand {\slideentry {0}{0}{33}{35/35}{}{0}}
\headcommand {\beamer@framepages {35}{35}}
\headcommand {\slideentry {0}{0}{34}{36/36}{}{0}}
\headcommand {\beamer@framepages {36}{36}}
\headcommand {\slideentry {0}{0}{35}{37/37}{}{0}}
\headcommand {\beamer@framepages {37}{37}}
\headcommand {\slideentry {0}{0}{36}{38/38}{}{0}}
\headcommand {\beamer@framepages {38}{38}}
\headcommand {\slideentry {0}{0}{37}{39/39}{}{0}}
\headcommand {\beamer@framepages {39}{39}}
\headcommand {\slideentry {0}{0}{38}{40/40}{}{0}}
\headcommand {\beamer@framepages {40}{40}}
\headcommand {\slideentry {0}{0}{39}{41/41}{}{0}}
\headcommand {\beamer@framepages {41}{41}}
\headcommand {\slideentry {0}{0}{40}{42/42}{}{0}}
\headcommand {\beamer@framepages {42}{42}}
\headcommand {\slideentry {0}{0}{41}{43/43}{}{0}}
\headcommand {\beamer@framepages {43}{43}}
\headcommand {\slideentry {0}{0}{42}{44/44}{}{0}}
\headcommand {\beamer@framepages {44}{44}}
\headcommand {\slideentry {0}{0}{43}{45/45}{}{0}}
\headcommand {\beamer@framepages {45}{45}}
\headcommand {\slideentry {0}{0}{44}{46/46}{}{0}}
\headcommand {\beamer@framepages {46}{46}}
\headcommand {\slideentry {0}{0}{45}{47/47}{}{0}}
\headcommand {\beamer@framepages {47}{47}}
\headcommand {\slideentry {0}{0}{46}{48/48}{}{0}}
\headcommand {\beamer@framepages {48}{48}}
\headcommand {\slideentry {0}{0}{47}{49/49}{}{0}}
\headcommand {\beamer@framepages {49}{49}}
\headcommand {\slideentry {0}{0}{48}{50/50}{}{0}}
\headcommand {\beamer@framepages {50}{50}}
\headcommand {\slideentry {0}{0}{49}{51/57}{}{0}}
\headcommand {\beamer@framepages {51}{57}}
\headcommand {\slideentry {0}{0}{50}{58/58}{}{0}}
\headcommand {\beamer@framepages {58}{58}}
\headcommand {\slideentry {0}{0}{51}{59/59}{}{0}}
\headcommand {\beamer@framepages {59}{59}}
\headcommand {\slideentry {0}{0}{52}{60/60}{}{0}}
\headcommand {\beamer@framepages {60}{60}}
\headcommand {\slideentry {0}{0}{53}{61/61}{}{0}}
\headcommand {\beamer@framepages {61}{61}}
\headcommand {\slideentry {0}{0}{54}{62/62}{}{0}}
\headcommand {\beamer@framepages {62}{62}}
\headcommand {\slideentry {0}{0}{55}{63/63}{}{0}}
\headcommand {\beamer@framepages {63}{63}}
\headcommand {\slideentry {0}{0}{56}{64/64}{}{0}}
\headcommand {\beamer@framepages {64}{64}}
\headcommand {\slideentry {0}{0}{57}{65/65}{}{0}}
\headcommand {\beamer@framepages {65}{65}}
\headcommand {\slideentry {0}{0}{58}{66/66}{}{0}}
\headcommand {\beamer@framepages {66}{66}}
\headcommand {\slideentry {0}{0}{59}{67/67}{}{0}}
\headcommand {\beamer@framepages {67}{67}}
\headcommand {\slideentry {0}{0}{60}{68/68}{}{0}}
\headcommand {\beamer@framepages {68}{68}}
\headcommand {\slideentry {0}{0}{61}{69/69}{}{0}}
\headcommand {\beamer@framepages {69}{69}}
\headcommand {\slideentry {0}{0}{62}{70/70}{}{0}}
\headcommand {\beamer@framepages {70}{70}}
\headcommand {\slideentry {0}{0}{63}{71/71}{}{0}}
\headcommand {\beamer@framepages {71}{71}}
\headcommand {\slideentry {0}{0}{64}{72/72}{}{0}}
\headcommand {\beamer@framepages {72}{72}}
\headcommand {\slideentry {0}{0}{65}{73/73}{}{0}}
\headcommand {\beamer@framepages {73}{73}}
\headcommand {\slideentry {0}{0}{66}{74/74}{}{0}}
\headcommand {\beamer@framepages {74}{74}}
\headcommand {\slideentry {0}{0}{67}{75/75}{}{0}}
\headcommand {\beamer@framepages {75}{75}}
\headcommand {\slideentry {0}{0}{68}{76/76}{}{0}}
\headcommand {\beamer@framepages {76}{76}}
\headcommand {\slideentry {0}{0}{69}{77/77}{}{0}}
\headcommand {\beamer@framepages {77}{77}}
\headcommand {\slideentry {0}{0}{70}{78/78}{}{0}}
\headcommand {\beamer@framepages {78}{78}}
\headcommand {\slideentry {0}{0}{71}{79/79}{}{0}}
\headcommand {\beamer@framepages {79}{79}}
\headcommand {\slideentry {0}{0}{72}{80/80}{}{0}}
\headcommand {\beamer@framepages {80}{80}}
\headcommand {\slideentry {0}{0}{73}{81/81}{}{0}}
\headcommand {\beamer@framepages {81}{81}}
\headcommand {\slideentry {0}{0}{74}{82/82}{}{0}}
\headcommand {\beamer@framepages {82}{82}}
\headcommand {\slideentry {0}{0}{75}{83/83}{}{0}}
\headcommand {\beamer@framepages {83}{83}}
\headcommand {\slideentry {0}{0}{76}{84/84}{}{0}}
\headcommand {\beamer@framepages {84}{84}}
\headcommand {\slideentry {0}{0}{77}{85/85}{}{0}}
\headcommand {\beamer@framepages {85}{85}}
\headcommand {\slideentry {0}{0}{78}{86/86}{}{0}}
\headcommand {\beamer@framepages {86}{86}}
\headcommand {\slideentry {0}{0}{79}{87/87}{}{0}}
\headcommand {\beamer@framepages {87}{87}}
\headcommand {\slideentry {0}{0}{80}{88/88}{}{0}}
\headcommand {\beamer@framepages {88}{88}}
\headcommand {\slideentry {0}{0}{81}{89/89}{}{0}}
\headcommand {\beamer@framepages {89}{89}}
\headcommand {\slideentry {0}{0}{82}{90/90}{}{0}}
\headcommand {\beamer@framepages {90}{90}}
\headcommand {\slideentry {0}{0}{83}{91/91}{}{0}}
\headcommand {\beamer@framepages {91}{91}}
\headcommand {\slideentry {0}{0}{84}{92/92}{}{0}}
\headcommand {\beamer@framepages {92}{92}}
\headcommand {\slideentry {0}{0}{85}{93/93}{}{0}}
\headcommand {\beamer@framepages {93}{93}}
\headcommand {\slideentry {0}{0}{86}{94/94}{}{0}}
\headcommand {\beamer@framepages {94}{94}}
\headcommand {\slideentry {0}{0}{87}{95/95}{}{0}}
\headcommand {\beamer@framepages {95}{95}}
\headcommand {\slideentry {0}{0}{88}{96/96}{}{0}}
\headcommand {\beamer@framepages {96}{96}}
\headcommand {\slideentry {0}{0}{89}{97/97}{}{0}}
\headcommand {\beamer@framepages {97}{97}}
\headcommand {\slideentry {0}{0}{90}{98/98}{}{0}}
\headcommand {\beamer@framepages {98}{98}}
\headcommand {\slideentry {0}{0}{91}{99/99}{}{0}}
\headcommand {\beamer@framepages {99}{99}}
\headcommand {\slideentry {0}{0}{92}{100/100}{}{0}}
\headcommand {\beamer@framepages {100}{100}}
\headcommand {\slideentry {0}{0}{93}{101/101}{}{0}}
\headcommand {\beamer@framepages {101}{101}}
\headcommand {\slideentry {0}{0}{94}{102/102}{}{0}}
\headcommand {\beamer@framepages {102}{102}}
\headcommand {\slideentry {0}{0}{95}{103/103}{}{0}}
\headcommand {\beamer@framepages {103}{103}}
\headcommand {\slideentry {0}{0}{96}{104/104}{}{0}}
\headcommand {\beamer@framepages {104}{104}}
\headcommand {\slideentry {0}{0}{97}{105/105}{}{0}}
\headcommand {\beamer@framepages {105}{105}}
\headcommand {\slideentry {0}{0}{98}{106/106}{}{0}}
\headcommand {\beamer@framepages {106}{106}}
\headcommand {\slideentry {0}{0}{99}{107/107}{}{0}}
\headcommand {\beamer@framepages {107}{107}}
\headcommand {\slideentry {0}{0}{100}{108/108}{}{0}}
\headcommand {\beamer@framepages {108}{108}}
\headcommand {\slideentry {0}{0}{101}{109/109}{}{0}}
\headcommand {\beamer@framepages {109}{109}}
\headcommand {\slideentry {0}{0}{102}{110/110}{}{0}}
\headcommand {\beamer@framepages {110}{110}}
\headcommand {\slideentry {0}{0}{103}{111/111}{}{0}}
\headcommand {\beamer@framepages {111}{111}}
\headcommand {\slideentry {0}{0}{104}{112/112}{}{0}}
\headcommand {\beamer@framepages {112}{112}}
\headcommand {\slideentry {0}{0}{105}{113/113}{}{0}}
\headcommand {\beamer@framepages {113}{113}}
\headcommand {\slideentry {0}{0}{106}{114/114}{}{0}}
\headcommand {\beamer@framepages {114}{114}}
\headcommand {\slideentry {0}{0}{107}{115/115}{}{0}}
\headcommand {\beamer@framepages {115}{115}}
\headcommand {\slideentry {0}{0}{108}{116/116}{}{0}}
\headcommand {\beamer@framepages {116}{116}}
\headcommand {\slideentry {0}{0}{109}{117/117}{}{0}}
\headcommand {\beamer@framepages {117}{117}}
\headcommand {\slideentry {0}{0}{110}{118/118}{}{0}}
\headcommand {\beamer@framepages {118}{118}}
\headcommand {\slideentry {0}{0}{111}{119/119}{}{0}}
\headcommand {\beamer@framepages {119}{119}}
\headcommand {\slideentry {0}{0}{112}{120/120}{}{0}}
\headcommand {\beamer@framepages {120}{120}}
\headcommand {\slideentry {0}{0}{113}{121/121}{}{0}}
\headcommand {\beamer@framepages {121}{121}}
\headcommand {\slideentry {0}{0}{114}{122/122}{}{0}}
\headcommand {\beamer@framepages {122}{122}}
\headcommand {\slideentry {0}{0}{115}{123/123}{}{0}}
\headcommand {\beamer@framepages {123}{123}}
\headcommand {\slideentry {0}{0}{116}{124/124}{}{0}}
\headcommand {\beamer@framepages {124}{124}}
\headcommand {\slideentry {0}{0}{117}{125/125}{}{0}}
\headcommand {\beamer@framepages {125}{125}}
\headcommand {\slideentry {0}{0}{118}{126/126}{}{0}}
\headcommand {\beamer@framepages {126}{126}}
\headcommand {\slideentry {0}{0}{119}{127/127}{}{0}}
\headcommand {\beamer@framepages {127}{127}}
\headcommand {\slideentry {0}{0}{120}{128/128}{}{0}}
\headcommand {\beamer@framepages {128}{128}}
\headcommand {\slideentry {0}{0}{121}{129/129}{}{0}}
\headcommand {\beamer@framepages {129}{129}}
\headcommand {\slideentry {0}{0}{122}{130/130}{}{0}}
\headcommand {\beamer@framepages {130}{130}}
\headcommand {\slideentry {0}{0}{123}{131/131}{}{0}}
\headcommand {\beamer@framepages {131}{131}}
\headcommand {\slideentry {0}{0}{124}{132/132}{}{0}}
\headcommand {\beamer@framepages {132}{132}}
\headcommand {\slideentry {0}{0}{125}{133/133}{}{0}}
\headcommand {\beamer@framepages {133}{133}}
\headcommand {\slideentry {0}{0}{126}{134/134}{}{0}}
\headcommand {\beamer@framepages {134}{134}}
\headcommand {\slideentry {0}{0}{127}{135/135}{}{0}}
\headcommand {\beamer@framepages {135}{135}}
\headcommand {\slideentry {0}{0}{128}{136/136}{}{0}}
\headcommand {\beamer@framepages {136}{136}}
\headcommand {\slideentry {0}{0}{129}{137/137}{}{0}}
\headcommand {\beamer@framepages {137}{137}}
\headcommand {\slideentry {0}{0}{130}{138/138}{}{0}}
\headcommand {\beamer@framepages {138}{138}}
\headcommand {\slideentry {0}{0}{131}{139/139}{}{0}}
\headcommand {\beamer@framepages {139}{139}}
\headcommand {\slideentry {0}{0}{132}{140/140}{}{0}}
\headcommand {\beamer@framepages {140}{140}}
\headcommand {\slideentry {0}{0}{133}{141/141}{}{0}}
\headcommand {\beamer@framepages {141}{141}}
\headcommand {\slideentry {0}{0}{134}{142/142}{}{0}}
\headcommand {\beamer@framepages {142}{142}}
\headcommand {\slideentry {0}{0}{135}{143/143}{}{0}}
\headcommand {\beamer@framepages {143}{143}}
\headcommand {\slideentry {0}{0}{136}{144/144}{}{0}}
\headcommand {\beamer@framepages {144}{144}}
\headcommand {\slideentry {0}{0}{137}{145/145}{}{0}}
\headcommand {\beamer@framepages {145}{145}}
\headcommand {\slideentry {0}{0}{138}{146/146}{}{0}}
\headcommand {\beamer@framepages {146}{146}}
\headcommand {\slideentry {0}{0}{139}{147/147}{}{0}}
\headcommand {\beamer@framepages {147}{147}}
\headcommand {\slideentry {0}{0}{140}{148/148}{}{0}}
\headcommand {\beamer@framepages {148}{148}}
\headcommand {\slideentry {0}{0}{141}{149/149}{}{0}}
\headcommand {\beamer@framepages {149}{149}}
\headcommand {\slideentry {0}{0}{142}{150/150}{}{0}}
\headcommand {\beamer@framepages {150}{150}}
\headcommand {\slideentry {0}{0}{143}{151/151}{}{0}}
\headcommand {\beamer@framepages {151}{151}}
\headcommand {\slideentry {0}{0}{144}{152/152}{}{0}}
\headcommand {\beamer@framepages {152}{152}}
\headcommand {\slideentry {0}{0}{145}{153/153}{}{0}}
\headcommand {\beamer@framepages {153}{153}}
\headcommand {\slideentry {0}{0}{146}{154/154}{}{0}}
\headcommand {\beamer@framepages {154}{154}}
\headcommand {\slideentry {0}{0}{147}{155/155}{}{0}}
\headcommand {\beamer@framepages {155}{155}}
\headcommand {\slideentry {0}{0}{148}{156/156}{}{0}}
\headcommand {\beamer@framepages {156}{156}}
\headcommand {\slideentry {0}{0}{149}{157/157}{}{0}}
\headcommand {\beamer@framepages {157}{157}}
\headcommand {\slideentry {0}{0}{150}{158/158}{}{0}}
\headcommand {\beamer@framepages {158}{158}}
\headcommand {\slideentry {0}{0}{151}{159/159}{}{0}}
\headcommand {\beamer@framepages {159}{159}}
\headcommand {\slideentry {0}{0}{152}{160/160}{}{0}}
\headcommand {\beamer@framepages {160}{160}}
\headcommand {\slideentry {0}{0}{153}{161/161}{}{0}}
\headcommand {\beamer@framepages {161}{161}}
\headcommand {\beamer@partpages {1}{161}}
\headcommand {\beamer@subsectionpages {1}{161}}
\headcommand {\beamer@sectionpages {1}{161}}
\headcommand {\beamer@documentpages {161}}
\headcommand {\def \inserttotalframenumber {153}}
